%YAML 1.1
%TAG !u! tag:unity3d.com,2011:
--- !u!74 &7400000
AnimationClip:
  m_ObjectHideFlags: 0
  m_PrefabParentObject: {fileID: 0}
  m_PrefabInternal: {fileID: 0}
  m_Name: Colgar
  serializedVersion: 6
  m_Legacy: 0
  m_Compressed: 0
  m_UseHighQualityCurve: 1
  m_RotationCurves: []
  m_CompressedRotationCurves: []
  m_EulerCurves: []
  m_PositionCurves: []
  m_ScaleCurves: []
  m_FloatCurves: []
  m_PPtrCurves:
  - curve:
    - time: 0
      value: {fileID: 21300000, guid: d1c957614bd1fbf4e84b20da6ee06eee, type: 3}
    - time: 0.033333335
      value: {fileID: 21300000, guid: 3784f755811c50140b80d649c8c1b5b9, type: 3}
    - time: 0.06666667
      value: {fileID: 21300000, guid: 677c4d223b8f69548b98e35dd6438a3f, type: 3}
    - time: 0.1
      value: {fileID: 21300000, guid: 7eafefb6d1e68584ea287b846263e5ca, type: 3}
    - time: 0.13333334
      value: {fileID: 21300000, guid: f1c514c9fd6e73346bd513cb7b95dd52, type: 3}
    - time: 0.16666667
      value: {fileID: 21300000, guid: 9bf0e9ac8286a4145a223f14c6e8beee, type: 3}
    - time: 0.2
      value: {fileID: 21300000, guid: 851cbaabc24aa6e41878a9c625c2adce, type: 3}
    - time: 0.23333333
      value: {fileID: 21300000, guid: dbd7f481768008649a294c640e99155c, type: 3}
    - time: 0.26666668
      value: {fileID: 21300000, guid: 2d72200af0bd2dc41a2039e055942bf3, type: 3}
    - time: 0.3
      value: {fileID: 21300000, guid: 4aa8e821a01f27a45957a37d3faf3ba3, type: 3}
    - time: 0.33333334
      value: {fileID: 21300000, guid: fad904eafdd30044d850af529064550a, type: 3}
    - time: 0.36666667
      value: {fileID: 21300000, guid: 8f0e2186233051f41a1719d8d62f23af, type: 3}
    - time: 0.4
      value: {fileID: 21300000, guid: ac7bb667752e24c4ca784f087a009103, type: 3}
    - time: 0.43333334
      value: {fileID: 21300000, guid: a06c1d895897d7f45b250373082fda7f, type: 3}
    - time: 0.46666667
      value: {fileID: 21300000, guid: d11c7892a538f154390eb82227d47ca3, type: 3}
    - time: 0.5
      value: {fileID: 21300000, guid: 1f3435ab2e41d7140bd597124c2ac395, type: 3}
    - time: 0.53333336
      value: {fileID: 21300000, guid: 644880b435763c64f872dff630ba788f, type: 3}
    - time: 0.5666667
      value: {fileID: 21300000, guid: cf1393402c15b70488185cac89c8ba3a, type: 3}
    - time: 0.6000001
      value: {fileID: 21300000, guid: 0ac5f0570c9f19e4d962624a80fb8077, type: 3}
    - time: 0.63333344
      value: {fileID: 21300000, guid: bcbfeaa997f242f4eb5527b2981cdb35, type: 3}
    - time: 0.6666668
      value: {fileID: 21300000, guid: 4259eb48a241edc40959bfe81bbab64f, type: 3}
    - time: 0.70000017
      value: {fileID: 21300000, guid: 87207f7b34ee7bc40922be658179cb9a, type: 3}
    - time: 0.7333335
      value: {fileID: 21300000, guid: a4c23d8314e754147949f633362afe44, type: 3}
    - time: 0.7666669
      value: {fileID: 21300000, guid: d0ebb8d43a3aae94f8feda48162b8067, type: 3}
    - time: 0.80000025
      value: {fileID: 21300000, guid: 869184b3f6f9abf409352d4d06f779e6, type: 3}
    - time: 0.8333336
      value: {fileID: 21300000, guid: 0f2b2a6e0b77bad44a3abc5d399654a8, type: 3}
    - time: 0.866667
      value: {fileID: 21300000, guid: c219aed8803363948851501e68a6a21b, type: 3}
    - time: 0.90000033
      value: {fileID: 21300000, guid: 694c35a08034c62408d4425b71b5440a, type: 3}
    - time: 0.9333337
      value: {fileID: 21300000, guid: c1f1fbffc6ad7ee4ab696b271b9250d8, type: 3}
    - time: 0.96666706
      value: {fileID: 21300000, guid: 6822966cc1871f34094c61a39aa70a1c, type: 3}
    - time: 1.0000004
      value: {fileID: 21300000, guid: dd6cf72e60c97a442a0263cd1d912c8b, type: 3}
    - time: 1.0333337
      value: {fileID: 21300000, guid: 71c943a9f273c9a4caefb72e19534322, type: 3}
    - time: 1.066667
      value: {fileID: 21300000, guid: b330d0e40585e74428cf7a2b7b22ac9c, type: 3}
    - time: 1.1000003
      value: {fileID: 21300000, guid: 768d7cfe5d637c44ca8ee28833628435, type: 3}
    - time: 1.1333336
      value: {fileID: 21300000, guid: 26193fb65ff79fd4e889199229399163, type: 3}
    - time: 1.1666669
      value: {fileID: 21300000, guid: f6dfb69380593c047a4a86ead33a115e, type: 3}
    - time: 1.2000002
      value: {fileID: 21300000, guid: 0b7a82a2c4f4e1e46ac94bbf83a4656c, type: 3}
    - time: 1.2333335
      value: {fileID: 21300000, guid: 8fb85ae0127ffae46bcbfdd56845fa6a, type: 3}
    - time: 1.2666668
      value: {fileID: 21300000, guid: 6133d0d08a3ac704bbca6b981c69ad85, type: 3}
    - time: 1.3000001
      value: {fileID: 21300000, guid: 5a0b3b7278bd9ba409cb329e94eee1d9, type: 3}
    - time: 1.3333334
      value: {fileID: 21300000, guid: e0c95528b8d627844a443ea8916738f2, type: 3}
    - time: 1.3666667
      value: {fileID: 21300000, guid: fc41e729f7995964e9b4695fc7ad1327, type: 3}
    - time: 1.4
      value: {fileID: 21300000, guid: f9157a575ed3948499778737916fc4d8, type: 3}
    - time: 1.4333333
      value: {fileID: 21300000, guid: 0914ae2d4b1a8df4ea435d628d3de0a7, type: 3}
    - time: 1.4666666
      value: {fileID: 21300000, guid: fee681e9b595edd4da3b64a12ee869c3, type: 3}
    - time: 1.4999999
      value: {fileID: 21300000, guid: 0228432b2d3e3fa41a02d6522feece53, type: 3}
    - time: 1.5333332
      value: {fileID: 21300000, guid: 5bbac89deb5b79a42ac4903c254b7691, type: 3}
    - time: 1.5666665
      value: {fileID: 21300000, guid: 67883ed208aa04046a151e5ba5d6503f, type: 3}
    attribute: m_Sprite
    path: PerdigaAnimacion
    classID: 114
    script: {fileID: -765806418, guid: f70555f144d8491a825f0804e09c671c, type: 3}
  m_SampleRate: 30
  m_WrapMode: 0
  m_Bounds:
    m_Center: {x: 0, y: 0, z: 0}
    m_Extent: {x: 0, y: 0, z: 0}
  m_ClipBindingConstant:
    genericBindings:
    - serializedVersion: 2
      path: 1178958050
      attribute: 2015549526
      script: {fileID: -765806418, guid: f70555f144d8491a825f0804e09c671c, type: 3}
      typeID: 114
      customType: 0
      isPPtrCurve: 1
    pptrCurveMapping:
    - {fileID: 21300000, guid: d1c957614bd1fbf4e84b20da6ee06eee, type: 3}
    - {fileID: 21300000, guid: 3784f755811c50140b80d649c8c1b5b9, type: 3}
    - {fileID: 21300000, guid: 677c4d223b8f69548b98e35dd6438a3f, type: 3}
    - {fileID: 21300000, guid: 7eafefb6d1e68584ea287b846263e5ca, type: 3}
    - {fileID: 21300000, guid: f1c514c9fd6e73346bd513cb7b95dd52, type: 3}
    - {fileID: 21300000, guid: 9bf0e9ac8286a4145a223f14c6e8beee, type: 3}
    - {fileID: 21300000, guid: 851cbaabc24aa6e41878a9c625c2adce, type: 3}
    - {fileID: 21300000, guid: dbd7f481768008649a294c640e99155c, type: 3}
    - {fileID: 21300000, guid: 2d72200af0bd2dc41a2039e055942bf3, type: 3}
    - {fileID: 21300000, guid: 4aa8e821a01f27a45957a37d3faf3ba3, type: 3}
    - {fileID: 21300000, guid: fad904eafdd30044d850af529064550a, type: 3}
    - {fileID: 21300000, guid: 8f0e2186233051f41a1719d8d62f23af, type: 3}
    - {fileID: 21300000, guid: ac7bb667752e24c4ca784f087a009103, type: 3}
    - {fileID: 21300000, guid: a06c1d895897d7f45b250373082fda7f, type: 3}
    - {fileID: 21300000, guid: d11c7892a538f154390eb82227d47ca3, type: 3}
    - {fileID: 21300000, guid: 1f3435ab2e41d7140bd597124c2ac395, type: 3}
    - {fileID: 21300000, guid: 644880b435763c64f872dff630ba788f, type: 3}
    - {fileID: 21300000, guid: cf1393402c15b70488185cac89c8ba3a, type: 3}
    - {fileID: 21300000, guid: 0ac5f0570c9f19e4d962624a80fb8077, type: 3}
    - {fileID: 21300000, guid: bcbfeaa997f242f4eb5527b2981cdb35, type: 3}
    - {fileID: 21300000, guid: 4259eb48a241edc40959bfe81bbab64f, type: 3}
    - {fileID: 21300000, guid: 87207f7b34ee7bc40922be658179cb9a, type: 3}
    - {fileID: 21300000, guid: a4c23d8314e754147949f633362afe44, type: 3}
    - {fileID: 21300000, guid: d0ebb8d43a3aae94f8feda48162b8067, type: 3}
    - {fileID: 21300000, guid: 869184b3f6f9abf409352d4d06f779e6, type: 3}
    - {fileID: 21300000, guid: 0f2b2a6e0b77bad44a3abc5d399654a8, type: 3}
    - {fileID: 21300000, guid: c219aed8803363948851501e68a6a21b, type: 3}
    - {fileID: 21300000, guid: 694c35a08034c62408d4425b71b5440a, type: 3}
    - {fileID: 21300000, guid: c1f1fbffc6ad7ee4ab696b271b9250d8, type: 3}
    - {fileID: 21300000, guid: 6822966cc1871f34094c61a39aa70a1c, type: 3}
    - {fileID: 21300000, guid: dd6cf72e60c97a442a0263cd1d912c8b, type: 3}
    - {fileID: 21300000, guid: 71c943a9f273c9a4caefb72e19534322, type: 3}
    - {fileID: 21300000, guid: b330d0e40585e74428cf7a2b7b22ac9c, type: 3}
    - {fileID: 21300000, guid: 768d7cfe5d637c44ca8ee28833628435, type: 3}
    - {fileID: 21300000, guid: 26193fb65ff79fd4e889199229399163, type: 3}
    - {fileID: 21300000, guid: f6dfb69380593c047a4a86ead33a115e, type: 3}
    - {fileID: 21300000, guid: 0b7a82a2c4f4e1e46ac94bbf83a4656c, type: 3}
    - {fileID: 21300000, guid: 8fb85ae0127ffae46bcbfdd56845fa6a, type: 3}
    - {fileID: 21300000, guid: 6133d0d08a3ac704bbca6b981c69ad85, type: 3}
    - {fileID: 21300000, guid: 5a0b3b7278bd9ba409cb329e94eee1d9, type: 3}
    - {fileID: 21300000, guid: e0c95528b8d627844a443ea8916738f2, type: 3}
    - {fileID: 21300000, guid: fc41e729f7995964e9b4695fc7ad1327, type: 3}
    - {fileID: 21300000, guid: f9157a575ed3948499778737916fc4d8, type: 3}
    - {fileID: 21300000, guid: 0914ae2d4b1a8df4ea435d628d3de0a7, type: 3}
    - {fileID: 21300000, guid: fee681e9b595edd4da3b64a12ee869c3, type: 3}
    - {fileID: 21300000, guid: 0228432b2d3e3fa41a02d6522feece53, type: 3}
    - {fileID: 21300000, guid: 5bbac89deb5b79a42ac4903c254b7691, type: 3}
    - {fileID: 21300000, guid: 67883ed208aa04046a151e5ba5d6503f, type: 3}
  m_AnimationClipSettings:
    serializedVersion: 2
    m_AdditiveReferencePoseClip: {fileID: 0}
    m_AdditiveReferencePoseTime: 0
    m_StartTime: 0
    m_StopTime: 1.5999998
    m_OrientationOffsetY: 0
    m_Level: 0
    m_CycleOffset: 0
    m_HasAdditiveReferencePose: 0
    m_LoopTime: 0
    m_LoopBlend: 0
    m_LoopBlendOrientation: 0
    m_LoopBlendPositionY: 0
    m_LoopBlendPositionXZ: 0
    m_KeepOriginalOrientation: 0
    m_KeepOriginalPositionY: 1
    m_KeepOriginalPositionXZ: 0
    m_HeightFromFeet: 0
    m_Mirror: 0
  m_EditorCurves: []
  m_EulerEditorCurves: []
  m_HasGenericRootTransform: 0
  m_HasMotionFloatCurves: 0
  m_GenerateMotionCurves: 0
  m_Events: []
